%YAML 1.1
%TAG !u! tag:unity3d.com,2011:
--- !u!114 &11400000
MonoBehaviour:
  m_ObjectHideFlags: 0
  m_CorrespondingSourceObject: {fileID: 0}
  m_PrefabInstance: {fileID: 0}
  m_PrefabAsset: {fileID: 0}
  m_GameObject: {fileID: 0}
  m_Enabled: 1
  m_EditorHideFlags: 0
  m_Script: {fileID: 11500000, guid: 5b0cc05a13a2f6f49af136914ee0dd73, type: 3}
  m_Name: Base_Arms
  m_EditorClassIdentifier: 
  guid: 70471500-9efb-43f5-95ff-d0b5b586fff6
  side:
  - {fileID: 21300000, guid: 896996fd074cbaa49979f1640be654c6, type: 3}
  - {fileID: 21300002, guid: 896996fd074cbaa49979f1640be654c6, type: 3}
  - {fileID: 21300004, guid: 896996fd074cbaa49979f1640be654c6, type: 3}
  - {fileID: 21300006, guid: 896996fd074cbaa49979f1640be654c6, type: 3}
  - {fileID: 21300008, guid: 896996fd074cbaa49979f1640be654c6, type: 3}
  front:
  - {fileID: 21300010, guid: 896996fd074cbaa49979f1640be654c6, type: 3}
  - {fileID: 21300012, guid: 896996fd074cbaa49979f1640be654c6, type: 3}
  - {fileID: 21300014, guid: 896996fd074cbaa49979f1640be654c6, type: 3}
  - {fileID: 21300016, guid: 896996fd074cbaa49979f1640be654c6, type: 3}
  - {fileID: 21300018, guid: 896996fd074cbaa49979f1640be654c6, type: 3}
  back:
  - {fileID: 21300020, guid: 896996fd074cbaa49979f1640be654c6, type: 3}
  - {fileID: 21300022, guid: 896996fd074cbaa49979f1640be654c6, type: 3}
  - {fileID: 21300024, guid: 896996fd074cbaa49979f1640be654c6, type: 3}
  - {fileID: 21300026, guid: 896996fd074cbaa49979f1640be654c6, type: 3}
  - {fileID: 21300028, guid: 896996fd074cbaa49979f1640be654c6, type: 3}
  subItem: {fileID: 0}
