%YAML 1.1
%TAG !u! tag:unity3d.com,2011:
--- !u!114 &11400000
MonoBehaviour:
  m_ObjectHideFlags: 0
  m_CorrespondingSourceObject: {fileID: 0}
  m_PrefabInstance: {fileID: 0}
  m_PrefabAsset: {fileID: 0}
  m_GameObject: {fileID: 0}
  m_Enabled: 1
  m_EditorHideFlags: 0
  m_Script: {fileID: 11500000, guid: f58b7715f91074746a607529a135c2bb, type: 3}
  m_Name: Item_Misc_Stone
  m_EditorClassIdentifier: 
  guid: 1f67fb5a-529e-4920-a7fd-c1a48cf86caa
  icon: {fileID: 21300000, guid: f7f130d2f575f0243a5f926d6c0cdd48, type: 3}
  itemName: Stone
  description: 
  canStack: 1
  hasSlot: 1
  hasEnergy: 0
  energyStartValue:
    min: 0
    max: 0
    current: 0
  isRemoveable: 1
  action: {fileID: 0}
