%YAML 1.1
%TAG !u! tag:unity3d.com,2011:
--- !u!114 &11400000
MonoBehaviour:
  m_ObjectHideFlags: 0
  m_CorrespondingSourceObject: {fileID: 0}
  m_PrefabInstance: {fileID: 0}
  m_PrefabAsset: {fileID: 0}
  m_GameObject: {fileID: 0}
  m_Enabled: 1
  m_EditorHideFlags: 0
  m_Script: {fileID: 11500000, guid: 6f0c84163a0ac6e419cd5ae8dc6ef280, type: 3}
  m_Name: Prefab Plant
  m_EditorClassIdentifier: 
  guid: fe4e6728-8fa6-41cd-972c-f3855107e1f0
  prefab: {fileID: 1637142726808352, guid: 725fb1e3b91bbca41920861302da8b67, type: 3}
  instanceManagerReference: {fileID: 11400000, guid: a1a043271400ed54db9428d9130eafc5,
    type: 2}
