%YAML 1.1
%TAG !u! tag:unity3d.com,2011:
--- !u!114 &11400000
MonoBehaviour:
  m_ObjectHideFlags: 0
  m_CorrespondingSourceObject: {fileID: 0}
  m_PrefabInstance: {fileID: 0}
  m_PrefabAsset: {fileID: 0}
  m_GameObject: {fileID: 0}
  m_Enabled: 1
  m_EditorHideFlags: 0
  m_Script: {fileID: 11500000, guid: 6f0c84163a0ac6e419cd5ae8dc6ef280, type: 3}
  m_Name: Prefab Rock
  m_EditorClassIdentifier: 
  guid: 1f3f5086-e866-4453-8173-e0aa0787ae25
  prefab: {fileID: 1526912647853178, guid: e71a253371c093845a1ee11b287fa786, type: 3}
  instanceManagerReference: {fileID: 11400000, guid: a1a043271400ed54db9428d9130eafc5,
    type: 2}
