%YAML 1.1
%TAG !u! tag:unity3d.com,2011:
--- !u!114 &11400000
MonoBehaviour:
  m_ObjectHideFlags: 0
  m_CorrespondingSourceObject: {fileID: 0}
  m_PrefabInstance: {fileID: 0}
  m_PrefabAsset: {fileID: 0}
  m_GameObject: {fileID: 0}
  m_Enabled: 1
  m_EditorHideFlags: 0
  m_Script: {fileID: 11500000, guid: f58b7715f91074746a607529a135c2bb, type: 3}
  m_Name: Item_Tool_Axe
  m_EditorClassIdentifier: 
  guid: d6e18b1f-f49b-4282-87e6-e5313f9a7ceb
  icon: {fileID: 21300002, guid: f7d919c91241eba4ca26f3cf02893f89, type: 3}
  itemName: Axe
  description: Used to cut wood
  canStack: 0
  hasSlot: 1
  hasEnergy: 0
  energyStartValue:
    min: 0
    max: 0
    current: 0
  isRemoveable: 0
  action: {fileID: 11400000, guid: 0e51cd814be80e6479dc37584c48f7a4, type: 2}
